<svg width="375" height="424" viewBox="0 0 375 424" fill="none" xmlns="http://www.w3.org/2000/svg">
<path d="M-57 -4H429V388.877C233.757 433.995 126.938 437.389 -57 388.877V-4Z" fill="#F0EBF7"/>
</svg>
